{"images":[{"id":16376426,"name":"Cassandra on 14.04","distribution":"Ubuntu","slug":"cassandra","public":true,"regions":["nyc1","sfo1","nyc2","ams2","sgp1","lon1","nyc3","ams3","fra1","tor1","sfo2","blr1"],"created_at":"2016-03-21T04:25:45Z","min_disk_size":30,"type":"snapshot","size_gigabytes":0.59,"description":"","tags":[],"status":"available","error_message":""},{"id":25256991,"name":"14.04.5 x32","distribution":"Ubuntu","slug":"ubuntu-14-04-x32-do","public":true,"regions":["nyc1","sfo1","nyc2","ams2","sgp1","lon1","nyc3","ams3","fra1","tor1","sfo2","blr1"],"created_at":"2017-05-31T19:23:18Z","min_disk_size":20,"type":"snapshot","size_gigabytes":0.43,"description":"14.04.x32 DO Build","tags":[],"status":"available","error_message":""},{"id":28282122,"name":"10.4 x64 ZFS","distribution":"FreeBSD","slug":"freebsd-10-4-x64-zfs","public":true,"regions":["nyc1","sfo1","nyc2","ams2","sgp1","lon1","nyc3","ams3","fra1","tor1","sfo2","blr1"],"created_at":"2017-10-03T18:24:11Z","min_disk_size":20,"type":"snapshot","size_gigabytes":0.75,"description":"10.4 x64 ZFS 20171003","tags":[],"status":"available","error_message":""},{"id":28282143,"name":"10.4 x64","distribution":"FreeBSD","slug":"freebsd-10-4-x64","public":true,"regions":["nyc1","sfo1","nyc2","ams2","sgp1","lon1","nyc3","ams3","fra1","tor1","sfo2","blr1"],"created_at":"2017-10-03T18:27:29Z","min_disk_size":20,"type":"snapshot","size_gigabytes":0.72,"description":"10.4 x64 UFS 20171003","tags":[],"status":"available","error_message":""},{"id":28706758,"name":"MachineLearning on 16.04-20171020","distribution":"Ubuntu","slug":null,"public":true,"regions":["nyc1","sfo1","nyc2","ams2","sgp1","lon1","nyc3","ams3","fra1","tor1","sfo2","blr1"],"created_at":"2017-10-20T19:25:07Z","min_disk_size":20,"type":"snapshot","size_gigabytes":1.87,"description":"MachineLearning on 16.04-20171020 20171020","tags":[],"status":"available","error_message":""},{"id":29492039,"name":"27 x64","distribution":"Fedora","slug":"fedora-27-x64","public":true,"regions":["nyc1","sfo1","nyc2","ams2","sgp1","lon1","nyc3","ams3","fra1","tor1","sfo2","blr1"],"created_at":"2017-11-20T16:05:14Z","min_disk_size":20,"type":"snapshot","size_gigabytes":0.23,"description":"27 x64","tags":[],"status":"available","error_message":""},{"id":29493174,"name":"27 x64 Atomic","distribution":"Fedora Atomic","slug":null,"public":true,"regions":["nyc1","sfo1","nyc2","ams2","sgp1","lon1","nyc3","ams3","fra1","tor1","sfo2","blr1"],"created_at":"2017-11-20T19:05:07Z","min_disk_size":20,"type":"snapshot","size_gigabytes":0.67,"description":"27 x64 Atomic","tags":[],"status":"available","error_message":""},{"id":31354013,"name":"6.9 x32","distribution":"CentOS","slug":"centos-6-x32","public":true,"regions":["nyc1","sfo1","nyc2","ams2","sgp1","lon1","nyc3","ams3","fra1","tor1","sfo2","blr1"],"created_at":"2018-01-30T12:26:21Z","min_disk_size":20,"type":"snapshot","size_gigabytes":0.33,"description":"Centos 6.9 x32 20180130","tags":[],"status":"available","error_message":""},{"id":31650475,"name":"14.04.5 LTS x64 HWE","distribution":"Ubuntu","slug":"ubuntu-14-04-x64-do","public":true,"regions":["nyc1","sfo1","nyc2","ams2","sgp1","lon1","nyc3","ams3","fra1","tor1","sfo2","blr1"],"created_at":"2018-02-09T18:16:52Z","min_disk_size":20,"type":"snapshot","size_gigabytes":0.33,"description":"14.04.5 LTS x64 20190209 DigitalOcean HWE Build","tags":[],"status":"available","error_message":""},{"id":33948356,"name":"28 x64","distribution":"Fedora","slug":"fedora-28-x64","public":true,"regions":["nyc1","sfo1","nyc2","ams2","sgp1","lon1","nyc3","ams3","fra1","tor1","sfo2","blr1"],"created_at":"2018-05-01T16:08:07Z","min_disk_size":20,"type":"snapshot","size_gigabytes":0.27,"description":"28 x64","tags":[],"status":"available","error_message":""},{"id":34114584,"name":"28 x64 Atomic","distribution":"Fedora Atomic","slug":"fedora-28-x64-atomic","public":true,"regions":["nyc1","sfo1","nyc2","ams2","sgp1","lon1","nyc3","ams3","fra1","tor1","sfo2","blr1"],"created_at":"2018-05-07T01:40:50Z","min_disk_size":20,"type":"snapshot","size_gigabytes":0.67,"description":"28 x64 Atomic","tags":[],"status":"available","error_message":""},{"id":34468562,"name":"cloudbench-nullworkload-on-1604.051818-1","distribution":"Ubuntu","slug":null,"public":true,"regions":["nyc1","sfo1","nyc2","ams2","sgp1","lon1","nyc3","ams3","fra1","tor1","sfo2","blr1"],"created_at":"2018-05-18T22:20:08Z","min_disk_size":20,"type":"snapshot","size_gigabytes":1.78,"description":"","tags":[],"status":"available","error_message":""},{"id":34468665,"name":"cloudbench-ycsb-cassandra-on-1604.051818-1","distribution":"Ubuntu","slug":null,"public":true,"regions":["nyc1","sfo1","nyc2","ams2","sgp1","lon1","nyc3","ams3","fra1","tor1","sfo2","blr1"],"created_at":"2018-05-18T22:22:11Z","min_disk_size":20,"type":"snapshot","size_gigabytes":2.26,"description":"","tags":[],"status":"available","error_message":""},{"id":34471494,"name":"cloudbench-hibench-hadoop-on-1604.061818-1","distribution":"Ubuntu","slug":null,"public":true,"regions":["nyc1","sfo1","nyc2","ams2","sgp1","lon1","nyc3","ams3","fra1","tor1","sfo2","blr1"],"created_at":"2018-05-18T23:40:05Z","min_disk_size":20,"type":"snapshot","size_gigabytes":3.4,"description":"","tags":[],"status":"available","error_message":""},{"id":34902021,"name":"6.9 x64","distribution":"CentOS","slug":"centos-6-x64","public":true,"regions":["nyc1","sfo1","nyc2","ams2","sgp1","lon1","nyc3","ams3","fra1","tor1","sfo2","blr1"],"created_at":"2018-06-02T00:21:33Z","min_disk_size":20,"type":"snapshot","size_gigabytes":0.35,"description":"Centos 6.9 x64 20180602","tags":[],"status":"available","error_message":""},{"id":35225031,"name":"MachineLearning on 16.04-20180612","distribution":"Ubuntu","slug":null,"public":true,"regions":["nyc1","sfo1","nyc2","ams2","sgp1","lon1","nyc3","ams3","fra1","tor1","sfo2","blr1"],"created_at":"2018-06-12T16:58:47Z","min_disk_size":20,"type":"snapshot","size_gigabytes":1.68,"description":"MachineLearning on 16.04-20180612 20180612","tags":[],"status":"available","error_message":""},{"id":35286347,"name":"- DigitalOcean Recovery 18.04.20180614","distribution":"Ubuntu","slug":null,"public":true,"regions":["nyc1","sfo1","nyc2","ams2","sgp1","lon1","nyc3","ams3","fra1","tor1","sfo2","blr1"],"created_at":"2018-06-14T16:00:14Z","min_disk_size":20,"type":"snapshot","size_gigabytes":0.26,"description":" - DigitalOcean Recovery 18.04.20180614","tags":[],"status":"available","error_message":""},{"id":36062181,"name":"cloudbench-sysbench-july-10-2018","distribution":"Ubuntu","slug":null,"public":true,"regions":["nyc1","sfo1","nyc2","ams2","sgp1","lon1","nyc3","ams3","fra1","tor1","sfo2","blr1"],"created_at":"2018-07-09T17:56:25Z","min_disk_size":20,"type":"snapshot","size_gigabytes":2.38,"description":"","tags":[],"status":"available","error_message":""},{"id":37722917,"name":"cloudbench-kernbench-on-1604.083018-1","distribution":"Ubuntu","slug":null,"public":true,"regions":["nyc1","sfo1","nyc2","ams2","sgp1","lon1","nyc3","ams3","fra1","tor1","sfo2","blr1"],"created_at":"2018-08-30T15:06:25Z","min_disk_size":20,"type":"custom","size_gigabytes":10.74,"description":"kernbench for cbtool","tags":[],"status":"available","error_message":""},{"id":37951799,"name":"Ghost on 18.04","distribution":"Ubuntu","slug":null,"public":true,"regions":["nyc1","sfo1","nyc2","ams2","sgp1","lon1","nyc3","ams3","fra1","tor1","sfo2","blr1"],"created_at":"2018-09-06T15:11:17Z","min_disk_size":20,"type":"snapshot","size_gigabytes":0.62,"description":"Ghost on 18.04 20180906","tags":[],"status":"available","error_message":""}],"links":{"pages":{"last":"https://api.digitalocean.com/v2/images?page=9","next":"https://api.digitalocean.com/v2/images?page=2"}},"meta":{"total":170}}